Exploratory analysis script
…
# States vs Hospitalization
state_v_hospitalization_training <- training_data_final %>% 
  group_by(State) %>% 
  mutate(all_hospitalizations = sum(Hospitalizations)) %>% 
  count(all_hospitalizations) %>% 
  select(State, all_hospitalizations) %>% arrange(desc(all_hospitalizations))

training_data_final %>% 
  group_by(State) %>% 
  mutate(all_illnesses = sum(Illnesses)) %>% 
  count(all_illnesses) %>% 
  select(State, all_illnesses) %>% arrange(desc(all_illnesses))

# A tibble: 54 × 2
# Groups:   State [54]
   State      all_illnesses
   <chr>              <dbl>
 1 Multistate         18617
 2 California         10054
 3 Illinois            7824
 4 Minnesota           6928
 5 Ohio                6384
 6 New York            6249
 7 Wisconsin           4638
 8 Florida             4033
 9 Georgia             3903
10 Michigan            3876
# … with 44 more rows
…
rmarkdown::paged_table(state_v_hospitalization_training)

State Map of Hospitalizations

training_hosp <- training_data_final%>%
  mutate(state = tolower(State))%>%
  group_by(state)%>%
  mutate(all_hosp = sum(Hospitalizations)) %>% count(all_hosp) %>%
  select(state, all_hosp)
training_hosp

# A tibble: 54 × 2
# Groups:   state [54]
   state       all_hosp
   <chr>          <dbl>
 1 alabama           98
 2 alaska            58
 3 arizona          111
 4 arkansas          81
 5 california       533
 6 colorado         113
 7 connecticut       83
 8 delaware           4
 9 florida          321
10 georgia          263
# … with 44 more rows

state_map <- training_hosp %>%
  distinct(state)%>%
  inner_join(., map_data("state"), by = c("state"="region"))

Warning in inner_join(., map_data("state"), by = c(state = "region")): Each row in `x` is expected to match at most 1 row in `y`.
ℹ Row 1 of `x` matches multiple rows.
ℹ If multiple matches are expected, set `multiple = "all"` to silence this
  warning.

state_map

# A tibble: 15,527 × 6
# Groups:   state [48]
   state    long   lat group order subregion
   <chr>   <dbl> <dbl> <dbl> <int> <chr>    
 1 alabama -87.5  30.4     1     1 <NA>     
 2 alabama -87.5  30.4     1     2 <NA>     
 3 alabama -87.5  30.4     1     3 <NA>     
 4 alabama -87.5  30.3     1     4 <NA>     
 5 alabama -87.6  30.3     1     5 <NA>     
 6 alabama -87.6  30.3     1     6 <NA>     
 7 alabama -87.6  30.3     1     7 <NA>     
 8 alabama -87.6  30.3     1     8 <NA>     
 9 alabama -87.7  30.3     1     9 <NA>     
10 alabama -87.8  30.3     1    10 <NA>     
# … with 15,517 more rows
…
