statistical_analysis
…
Model Evaluation

# Checking parameters for linear regression model
tidy(lm_fit1) %>%
  arrange(-estimate)

# A tibble: 35 × 5
   term                              estimate std.error statistic  p.value
   <chr>                                <dbl>     <dbl>     <dbl>    <dbl>
 1 (Intercept)                           79.0      4.96    15.9   2.33e-55
 2 Simplified_EtiologyShigella          -22.9     10.9     -2.10  3.57e- 2
 3 Simplified_EtiologyClostridium       -30.7      6.16    -4.99  6.39e- 7
 4 Simplified_EtiologyCyclospora        -32.2     18.8     -1.72  8.63e- 2
 5 Simplified_EtiologyCampylobacter     -39.6      7.79    -5.09  3.77e- 7
 6 Simplified_EtiologySalmonella        -42.2      5.34    -7.89  3.84e-15
 7 Simplified_EtiologyBacterium         -44.5     46.4     -0.958 3.38e- 1
 8 Simplified_EtiologyNorovirus         -47.1      5.34    -8.84  1.46e-18
 9 Simplified_EtiologyStaphylococcus    -50.0      7.11    -7.03  2.38e-12
10 Simplified_EtiologyStreptococcus     -52.0     33.0     -1.57  1.15e- 1
# … with 25 more rows

tidy(lm_fit2)%>%
  arrange(-estimate)

# A tibble: 132 × 5
   term                                      estimate std.error stati…¹  p.value
   <chr>                                        <dbl>     <dbl>   <dbl>    <dbl>
 1 (Intercept)                                 1577.     417.      3.78 1.59e- 4
 2 LocationLong-Term Care/Nursing Home/As...    188.      60.2     3.13 1.78e- 3
 3 `IFSAC Category`Seeded-Vegetables            134.      27.3     4.91 9.28e- 7
 4 StateArkansas                                 81.8     19.9     4.11 3.99e- 5
 5 LocationPrison/Jail                           80.3      8.70    9.23 4.47e-20
 6 `IFSAC Category`Fruits                        72.5      8.54    8.49 2.87e-17
 7 StateWashington DC                            52.4     30.9     1.69 9.02e- 2
 8 StateMultistate                               50.0     15.6     3.21 1.33e- 3
 9 Simplified_EtiologyPlant                      41.9     37.2     1.13 2.59e- 1
10 StateTexas                                    38.3     18.5     2.07 3.83e- 2
# … with 122 more rows, and abbreviated variable name ¹​statistic

# Checking parameters for Poisson regression model
tidy(poisson_fit1)%>%
 arrange(-estimate)

# A tibble: 35 × 5
   term                              estimate std.error statistic  p.value
   <chr>                                <dbl>     <dbl>     <dbl>    <dbl>
 1 (Intercept)                          4.37    0.00856    511.   0       
 2 Simplified_EtiologyShigella         -0.343   0.0217     -15.8  1.67e-56
 3 Simplified_EtiologyClostridium      -0.493   0.0118     -41.9  0       
 4 Simplified_EtiologyCyclospora       -0.524   0.0414     -12.6  1.29e-36
 5 Simplified_EtiologyCampylobacter    -0.697   0.0170     -41.0  0       
 6 Simplified_EtiologySalmonella       -0.763   0.00991    -77.0  0       
 7 Simplified_EtiologyBacterium        -0.828   0.121       -6.86 6.81e-12
 8 Simplified_EtiologyNorovirus        -0.909   0.0101     -90.2  0       
 9 Simplified_EtiologyStaphylococcus   -1.00    0.0168     -59.6  0       
10 Simplified_EtiologyStreptococcus    -1.07    0.0966     -11.1  1.13e-28
# … with 25 more rows

tidy(poisson_fit2)%>%
 arrange(-estimate)

# A tibble: 132 × 5
   term                                        estim…¹ std.e…² stati…³   p.value
   <chr>                                         <dbl>   <dbl>   <dbl>     <dbl>
 1 "(Intercept)"                                 51.1   1.27     40.2  0        
 2 "Simplified_EtiologyPlant"                     2.39  0.203    11.7  8.05e- 32
 3 "Simplified_EtiologyPesticides"                2.03  0.124    16.4  3.01e- 60
 4 "Simplified_EtiologyChemical"                  1.70  0.0640   26.5  3.40e-155
 5 "Simplified_EtiologyNeurotoxic"                1.62  0.235     6.88 6.11e- 12
 6 "Simplified_EtiologyMycotoxins"                1.35  0.192     7.01 2.43e- 12
 7 "`\\`IFSAC Category\\`Seeded-Vegetables`"      1.26  0.0370   34.1  4.50e-255
 8 "StateMultistate"                              1.03  0.0452   22.8  3.94e-115
 9 "`LocationLong-Term Care/Nursing Home/As..…    1.01  0.0630   16.1  4.82e- 58
10 "`\\`IFSAC Category\\`Fruits`"                 1.01  0.0185   54.4  0        
# … with 122 more rows, and abbreviated variable names ¹​estimate, ²​std.error,
#   ³​statistic
…
