Data Pre-Processing/Cleaning Script
…
#we want to drop the NA rows

training_data_fin%>%
  drop_na()

# A tibble: 3,968 × 14
    Year Month   Numeric_Mo…¹ State Locat…² Food  IFSAC…³ Species Status Illne…⁴
   <dbl> <chr>          <dbl> <chr> <chr>   <chr> <chr>   <chr>   <chr>    <dbl>
 1  1998 January            1 Cali… Restau… Fish… Fish    Scombr… Confi…       4
 2  1998 January            1 Cali… Privat… Lasa… Multip… Salmon… Confi…      26
 3  1998 January            1 Cali… Restau… Stuf… Multip… Salmon… Confi…       4
 4  1998 January            1 Flor… Restau… Sand… Poultry Campyl… Confi…       3
 5  1998 January            1 Guam  Restau… Chic… Poultry Vibrio… Confi…      47
 6  1998 January            1 Hawa… Privat… Fish… Fish    Ciguat… Confi…       3
 7  1998 January            1 Hawa… Privat… Fish… Fish    Scombr… Confi…       2
 8  1998 January            1 Hawa… Restau… Fish… Fish    Scombr… Confi…       2
 9  1998 January            1 Mary… Restau… Burr… Poultry Salmon… Confi…       4
10  1998 January            1 Mary… Restau… Cake… Multip… Salmon… Confi…       8
# … with 3,958 more rows, 4 more variables: Hospitalizations <dbl>,
#   Fatalities <dbl>, Pathogen_Type <chr>, Simplified_Etiology <chr>, and
#   abbreviated variable names ¹​Numeric_Month, ²​Location, ³​`IFSAC Category`,
#   ⁴​Illnesses

analysis_data_fin%>%
  drop_na()

# A tibble: 1,273 × 17
    Year Month State     Prima…¹ Etiol…² Serot…³ Etiol…⁴ Setting Illne…⁵ Hospi…⁶
   <dbl> <dbl> <chr>     <chr>   <chr>   <chr>   <chr>   <chr>     <dbl>   <dbl>
 1  2009     1 Massachu… Food    Escher… O157:H7 Confir… Privat…       3       2
 2  2009     1 Connecti… Food    Salmon… Enteri… Confir… Restau…       7       2
 3  2009     4 New York  Food    Salmon… Enteri… Confir… Restau…      13       4
 4  2009     3 Connecti… Food    Escher… O157:H7 Confir… Office…      60       5
 5  2009     4 Ohio      Food    Escher… O157:H7 Confir… Restau…       3       2
 6  2009     4 Wisconsin Food    Salmon… Enteri… Confir… Privat…      14       2
 7  2009     6 Minnesota Food    Escher… O157:H7 Confir… Privat…       4       0
 8  2009     6 Minnesota Food    Escher… O157:H7 Confir… Restau…       2       1
 9  2009     5 New York  Food    Salmon… Enteri… Confir… Restau…      19       2
10  2009     1 Ohio      Food    Norovi… GII.12  Confir… Catere…      22       0
# … with 1,263 more rows, 7 more variables: `Info on Hospitalizations` <dbl>,
#   Deaths <dbl>, `Info on Deaths` <dbl>, `Food Vehicle` <chr>,
#   `IFSAC Category` <chr>, Pathogen_Type <chr>, Simplified_Etiology <chr>, and
#   abbreviated variable names ¹​`Primary Mode`, ²​Etiology,
#   ³​`Serotype or Genotype`, ⁴​`Etiology Status`, ⁵​Illnesses, ⁶​Hospitalizations
…
